[
  {
    "name": "metricbeat",
    "url": "https://artifacts.elastic.co/downloads/beats/metricbeat/metricbeat-5.4.3-linux-x86_64.tar.gz",
    "binary": "metricbeat",
    "config": "templates/metricbeat.yml"
  },
  {
    "name":"packetbeat",
    "url":"https://artifacts.elastic.co/downloads/beats/packetbeat/packetbeat-5.4.3-linux-x86_64.tar.gz",
    "binary": "packetbeat",
    "config": "templates/packetbeat.yml"
  }
]